{
  "meta": {
    "total_count": 12345,
    "per_page": 10,
    "current_page": 1,
    "total_pages": 1235
  },
  "data": [
    {
      "id": 1,
      "title": "Moby Dick",
      "authors": [
        {
          "name": "Melville, Herman",
          "birth_year": 1819,
          "death_year": 1891
        }
      ],
      "languages": ["en"],
      "download_count": 42
    }
  ]
}
